commit 62956466df1adb12959814bd73cd7b0ef5949517
Author: Stephane Rouge <rouge.stephane@yahoo.fr>
Date:   Sun Oct 29 18:46:43 2017 +0100

    fix action point

commit 784e119ee40e3b7cb6b24e29fb09bd05897cbafb
Author: Achille Burah <achille.burah@gmail.com>
Date:   Sun Oct 29 18:28:26 2017 +0100

    Affichage ennemis + size uploaded img + script surrounding images + minor fixes

commit 81799e337b1d44d49611a758ea5d3bc251736c26
Merge: 3cd46be acceab3
Author: Stephane Rouge <stephane.rouge@edu.ece.fr>
Date:   Thu Oct 26 23:30:25 2017 +0200

    Merge branch 'master' of bitbucket.org:webprojecting4/webarenarep

commit 3cd46bed9784644edf6ae4b838ffc90fa03cd6a4
Author: Stephane Rouge <stephane.rouge@edu.ece.fr>
Date:   Thu Oct 26 23:30:08 2017 +0200

    Option C finished

commit acceab3a426d27bc35ce8127cb58c5fb99c54d75
Merge: e0dccc9 5e44d4e
Author: Achille Burah <achille.burah@gmail.com>
Date:   Thu Oct 26 18:28:15 2017 +0200

    Merge branch 'master' of https://bitbucket.org/webprojecting4/webarenarep

commit e0dccc99ee3bccd6d39226f88abd73561cc95e16
Author: Achille Burah <achille.burah@gmail.com>
Date:   Thu Oct 26 18:27:56 2017 +0200

    Input File Form
    Resize Footer

commit 5e44d4e670626d68bfa946ab3bbccd73a9ad47e4
Author: Stephane Rouge <stephane.rouge@edu.ece.fr>
Date:   Thu Oct 26 18:08:33 2017 +0200

    minor fixes

commit b1dc74a5963f81624e37805cf94e73f54a938e4e
Author: Stephane Rouge <stephane.rouge@edu.ece.fr>
Date:   Thu Oct 26 18:07:34 2017 +0200

    minor fixes

commit 538ee9d7c7159745a0227ec96bd346ca938342fc
Author: Victor Bigand <victor@bigand.com>
Date:   Thu Oct 26 12:07:27 2017 +0200

    page d'accueil

commit def8f6e7e4a574c9b1a76c306b985ddd61c82dbd
Author: Victor Bigand <victor@bigand.com>
Date:   Wed Oct 25 22:24:02 2017 +0200

    légers update graphiques

commit 9055d7fbc7f52741f5e978ba0c8b5f96ac04c1a6
Author: Victor Bigand <victor@bigand.com>
Date:   Wed Oct 25 21:54:54 2017 +0200

    ajout favicon

commit 1286ed86a376dde0565381f1ed36ebcd9a221239
Author: Victor Bigand <victor@bigand.com>
Date:   Wed Oct 25 18:07:25 2017 +0200

    menu responsive

commit 4caa02c43aca2fe9099dee67fb55657e78a2a129
Author: Victor Bigand <victor@bigand.com>
Date:   Wed Oct 25 17:42:42 2017 +0200

    ajout de fichiers js et tooltip sur les items du fighter

commit c0d27bea9eef2bc7ff62671794e3ca5d1bb28fb9
Author: Achille Burah <achille.burah@gmail.com>
Date:   Wed Oct 25 16:17:16 2017 +0200

    Changement level up : Modification xp necessaire, deplacement dans fighter et modification level initial

commit 29b3fcc62869555aa849ea4cc2b79f5bb9230750
Author: lucas\LUCAS01 <mattioli.lucas@gmail.com>
Date:   Wed Oct 25 12:04:52 2017 +0200

    option C

commit 86778126ce20a09335236bc613f8a3120a519c0c
Author: Stephane Rouge <rouge.stephane@yahoo.fr>
Date:   Wed Oct 25 00:23:00 2017 +0200

    event precision

commit 35e6f843786cdd496557bd28ccef543ee80446b6
Merge: 4afeeff eb6f98d
Author: Stephane Rouge <rouge.stephane@yahoo.fr>
Date:   Tue Oct 24 23:49:56 2017 +0200

    Merge branch 'master' of https://bitbucket.org/webprojecting4/webarenarep

commit 4afeeff25b0c3296bb0b22f01c900f6de6b6ba1d
Author: Stephane Rouge <rouge.stephane@yahoo.fr>
Date:   Tue Oct 24 23:49:10 2017 +0200

    surrounding end

commit eb6f98dd8ecc20726e75c5f968e1718fed988e61
Author: Achille Burah <achille.burah@gmail.com>
Date:   Tue Oct 24 16:52:46 2017 +0200

    new images for the buttons

commit 932bf010962b7ef048c4e83115752bc84a93efe6
Author: Achille Burah <achille.burah@gmail.com>
Date:   Tue Oct 24 15:38:24 2017 +0200

    Correctif sight

commit 5cb351fa1511cb048170acea4180cd19c2b239cd
Author: Achille Burah <achille.burah@gmail.com>
Date:   Tue Oct 24 15:32:08 2017 +0200

    Design Sight / Default + changes buttons

commit 2a832e3b1cd2102a977f841641b9fbeeb02adc8a
Author: Stephane Rouge <rouge.stephane@yahoo.fr>
Date:   Tue Oct 24 15:04:29 2017 +0200

    add trap kill + bug fix

commit a8aaf7699b76fea884bc7cc3d4205013b6a33800
Merge: 595c16a eb4333d
Author: lucas\LUCAS01 <mattioli.lucas@gmail.com>
Date:   Tue Oct 24 14:42:06 2017 +0200

    merge conflict done

commit 595c16a6a56f38325ab37be8807d867d616e245b
Author: lucas\LUCAS01 <mattioli.lucas@gmail.com>
Date:   Tue Oct 24 14:35:51 2017 +0200

    séparation de l'attaque en 4 boutons

commit eb4333d26fbd9961710900d397d44b0288c6946a
Author: Victor Bigand <victor@bigand.com>
Date:   Tue Oct 24 11:13:55 2017 +0200

    logos de level

commit d3b4fd9d706f37a8e8c06afdc2cedf6cd9a95c01
Merge: 448b878 4f23321
Author: Achille Burah <achille.burah@gmail.com>
Date:   Tue Oct 24 11:04:21 2017 +0200

    Merge branch 'master' of https://bitbucket.org/webprojecting4/webarenarep
    
    Conflicts:
            src/Template/Arenas/sight.ctp

commit 448b878847c5a9796aff6c9c95aa7581de3e285a
Author: Achille Burah <achille.burah@gmail.com>
Date:   Tue Oct 24 11:01:59 2017 +0200

    Design Sight + New images

commit 4f233216379917ad44617ec547115f8cd794b7fb
Author: lucas\LUCAS01 <mattioli.lucas@gmail.com>
Date:   Tue Oct 24 10:56:58 2017 +0200

    pieges

commit 5f21707bfa5a0df6934487a2cb4dd04cb1afdb87
Author: lucas\LUCAS01 <mattioli.lucas@gmail.com>
Date:   Tue Oct 24 10:34:24 2017 +0200

    murs

commit e66b59fa9b83f4370d161bbb87e62ceccf19c186
Author: Stephane Rouge <stephane.rouge@edu.ece.fr>
Date:   Mon Oct 23 21:49:28 2017 +0200

    add comments + fix bugs

commit 1088b61397792ff467414d03b44808b819f50010
Author: Stephane Rouge <stephane.rouge@edu.ece.fr>
Date:   Mon Oct 23 20:18:25 2017 +0200

    minor fix

commit 22cd68fc4592e4d1bfde753e84b6af770997478e
Author: Victor Bigand <victor@bigand.com>
Date:   Mon Oct 23 18:40:28 2017 +0200

    Ajout de la fonction log out, bases graphiques pour le fighter

commit a981a8584fcdb5f1ed932cc7dbad4a32056e23be
Author: lucas\LUCAS01 <mattioli.lucas@gmail.com>
Date:   Mon Oct 23 15:18:15 2017 +0200

    ajout de l'attaque plus blindage de sight

commit c53ae3de5c5f22f7824e87e47133b26377118e2c
Author: Stephane Rouge <rouge.stephane@yahoo.fr>
Date:   Sun Oct 22 19:31:13 2017 +0200

    add session compatibility

commit ed71d310cc34833d9482b663f7d9011a23fdb12c
Author: Achille Burah <achille.burah@gmail.com>
Date:   Sun Oct 22 18:51:36 2017 +0200

    Login / Register

commit e2a7eee52e10ee342a04aee6b5fc843841edfa6c
Author: Stephane Rouge <rouge.stephane@yahoo.fr>
Date:   Fri Oct 20 21:07:15 2017 +0200

    Ajout des ennemis sur la grille + gestion des fighters + Logo

commit a33150ed438fe99d8f1d4971bea320ecbd4cdc22
Author: Stephane Rouge <stephane.rouge@edu.ece.fr>
Date:   Tue Oct 17 21:33:23 2017 +0200

    Ajout de commentaires

commit 089f51bb45f6b13b7f6409c153e814d78e5cda63
Author: Stephane Rouge <stephane.rouge@edu.ece.fr>
Date:   Tue Oct 17 21:15:50 2017 +0200

    clean de fichiers

commit cea8bf046f12a4a7128369b24fdcaba37c677b9b
Author: Stephane Rouge <stephane.rouge@edu.ece.fr>
Date:   Tue Oct 17 21:14:59 2017 +0200

    changement des conventions de nommage + fix html

commit fe59d5ea9b8093d9e2bbb21ccdd77fd5ecb463eb
Author: lucas\LUCAS01 <mattioli.lucas@gmail.com>
Date:   Tue Oct 17 11:46:22 2017 +0200

    nouveau fighter

commit 305c030a152ec068b86ef6560a9e505729af0a1a
Author: lucas\LUCAS01 <mattioli.lucas@gmail.com>
Date:   Tue Oct 17 10:31:58 2017 +0200

    montée de niveau

commit 923fcc871e4e8d560f4e5516862ca5000e75a40d
Author: Stephane Rouge <stephane.rouge@edu.ece.fr>
Date:   Mon Oct 16 18:42:00 2017 +0200

    Ajout de la vue et du déplacment de personnage

commit c388122c56fcebaf603bf9d4718c235a87016b62
Author: Achille Burah <achille.burah@gmail.com>
Date:   Mon Oct 16 15:45:45 2017 +0200

    Affichage Fighter Variables

commit 40c29576c25f34d7a2112fa6f37aca0ce284cb8a
Author: Achille Burah <achille.burah@gmail.com>
Date:   Sun Oct 15 18:14:53 2017 +0200

    1st Commit
